Cleaning of the data
…
Tidied up minus entries - Note that the Confidence Interval notation is not standardised!

Explicitly annotated plus with the prior categories

Removed adj from conditions, where the covariates indicate a deeper analysis

Inserted annotations, such as - male, into the Condition description to uniquely identify each test.

2 Read in the data

# TSH  <- read_excel("../data/20190318_excel tsh_2019_data.xlsx")
TSH  <- read_excel("../raw data/20190519_excel tsh_2019_data.xlsx")
TSH

## # A tibble: 506 x 19
##    Paper `Continuous V q `Condition and  FT4_N FT4_method FT4_Sig FT4_PV
##    <chr> <chr>            <chr>            <chr> <chr>      <chr>   <chr> 
##  1 Capp Continuous       AF               2673  Cox PH     Y       < 0.0
##  2 Capp Continuous       AF               2673  Cox PH     Y       0.02  
##  3 Capp Continuous       CHD              2215  Cox PH     N       0.13  
##  4 Capp Continuous       CHD              2215  Cox PH     N       0.280
##  5 Capp Continuous       Incident Heart  2706  Cox PH     Y       4.000
##  6 Capp Continuous       Incident Heart  2706  Cox PH     Y       0.03  
##  7 Capp Continuous       Composite measu 2073  Cox PH     Y       8.000
##  8 Capp Continuous       Composite measu 2073  Cox PH     Y       0.02  
##  9 Capp Continuous       Hip Fracture     2803  Cox PH     N       0.79  
## 10 Capp Continuous       Hip Fracture     2803  Cox PH     N       0.560
## #  with 496 more rows, and 12 more variables: FT4_cov <chr>, TSH_N <chr>,
## #   TSH_method <chr>, TSH_Sig <chr>, TSH_PV <chr>, TSH_cov <chr>,
## #   T3_N <chr>, T3_method <chr>, T3_Sig <chr>, T3_PV <chr>, T3_cov <chr>,
## #   `T3 - Free or Total` <chr>

3 Cleaning of the data

3.1 Missing rows

Nigel has mentioned that left blank rows between the papers, we will remove these

TSH  <- 
  TSH %>% 
  filter(!is.na(Paper))
TSH

## # A tibble: 462 x 19
##    Paper `Continuous V q `Condition and  FT4_N FT4_method FT4_Sig FT4_PV
##    <chr> <chr>            <chr>            <chr> <chr>      <chr>   <chr> 
##  1 Capp Continuous       AF               2673  Cox PH     Y       < 0.0
##  2 Capp Continuous       AF               2673  Cox PH     Y       0.02  
##  3 Capp Continuous       CHD              2215  Cox PH     N       0.13  
##  4 Capp Continuous       CHD              2215  Cox PH     N       0.280
##  5 Capp Continuous       Incident Heart  2706  Cox PH     Y       4.000
##  6 Capp Continuous       Incident Heart  2706  Cox PH     Y       0.03  
##  7 Capp Continuous       Composite measu 2073  Cox PH     Y       8.000
##  8 Capp Continuous       Composite measu 2073  Cox PH     Y       0.02  
##  9 Capp Continuous       Hip Fracture     2803  Cox PH     N       0.79  
## 10 Capp Continuous       Hip Fracture     2803  Cox PH     N       0.560
## #  with 452 more rows, and 12 more variables: FT4_cov <chr>, TSH_N <chr>,
## #   TSH_method <chr>, TSH_Sig <chr>, TSH_PV <chr>, TSH_cov <chr>,
## #   T3_N <chr>, T3_method <chr>, T3_Sig <chr>, T3_PV <chr>, T3_cov <chr>,
## #   `T3 - Free or Total` <chr>
…
3.5 Condition

Column condition has had name change - change back

TSH  <- 
  TSH %>% 
  rename(Condition = `Condition and restrictions on cohorts`)

TSH %>% 
  count(Condition)

## # A tibble: 243 x 2
##    Condition                                                           n
##    <chr>                                                           <int>
##  1 *delta thyroid diab - trend                                         6
##  2 abdo fat  - female                                                  1
##  3 abdo fat - male                                                     1
##  4 ADL                                                                 2
##  5 AF                                                                  3
##  6 AF incident                                                         2
##  7 AF incident normal FT4/TSH, excluding thyroid medication            2
##  8 AF incident, normal FT4/TSH excluding thyroid medication            2
##  9 AF prevalent                                                        2
## 10 AF prevalent normal TSH/FT4, excluding thyroid medication users     4
## #  with 233 more rows
…
summary(TSH$FT4_N)

##    Min. 1st Qu.  Median    Mean 3rd Qu.    Max. 
##      23    1278    2219    3030    3649   10225

3.8 FT4 method

TSH %>% 
  count(FT4_method)

## # A tibble: 31 x 2
##    FT4_method                       n
##    <chr>                        <int>
##  1 <NA>                             3
##  2 ?fixed effects                   6
##  3 adjusted regression             12
##  4 Anova/Tukey                      6
##  5 Anova/Tukey/multiple log reg    13
##  6 Anova/X sq                       4
##  7 correlation analysis            24
##  8 Cox PH                         120
##  9 Cox PH logFT4                   10
## 10 Cox PH/log reg                   6
## #  with 21 more rows
…
Nigel - you need to check and edit these.

pv  <- clean_pv(TSH$FT4_PV)

## Warning in clean_pv(TSH$FT4_PV): NAs introduced by coercion

## Warning in clean_pv(TSH$FT4_PV): NAs introduced by coercion

pv  <- pv %>% select(-origin_x)
pv

## # A tibble: 462 x 6
##    FT4_pv FT4_bounded FT4_OR FT4_ORCI FT4_count FT4_countCI
##     <dbl> <lgl>        <dbl> <chr>    <chr>     <chr>      
##  1  0.001 TRUE            NA <NA>     <NA>      <NA>       
##  2  0.02  FALSE           NA <NA>     <NA>      <NA>       
##  3  0.13  FALSE           NA <NA>     <NA>      <NA>       
##  4  0.28  FALSE           NA <NA>     <NA>      <NA>       
##  5  0.004 FALSE           NA <NA>     <NA>      <NA>       
##  6  0.03  FALSE           NA <NA>     <NA>      <NA>       
##  7  0.008 FALSE           NA <NA>     <NA>      <NA>       
##  8  0.02  FALSE           NA <NA>     <NA>      <NA>       
##  9  0.79  FALSE           NA <NA>     <NA>      <NA>       
## 10  0.56  FALSE           NA <NA>     <NA>      <NA>       
## #  with 452 more rows
…
NB: Please correct

pv  <- clean_pv(TSH$TSH_PV)

## Warning in clean_pv(TSH$TSH_PV): NAs introduced by coercion

## Warning in clean_pv(TSH$TSH_PV): NAs introduced by coercion

pv  <- pv %>% select(-origin_x)
pv

## # A tibble: 462 x 6
##    TSH_pv TSH_bounded TSH_OR TSH_ORCI TSH_count TSH_countCI
##     <dbl> <lgl>        <dbl> <chr>    <chr>     <chr>      
##  1   0.09 FALSE           NA <NA>     <NA>      <NA>       
##  2   0.12 FALSE           NA <NA>     <NA>      <NA>       
##  3   0.2  FALSE           NA <NA>     <NA>      <NA>       
##  4   0.15 FALSE           NA <NA>     <NA>      <NA>       
##  5   0.17 FALSE           NA <NA>     <NA>      <NA>       
##  6   0.09 FALSE           NA <NA>     <NA>      <NA>       
##  7   0.05 FALSE           NA <NA>     <NA>      <NA>       
##  8   0.04 FALSE           NA <NA>     <NA>      <NA>       
##  9   0.2  FALSE           NA <NA>     <NA>      <NA>       
## 10   0.26 FALSE           NA <NA>     <NA>      <NA>       
## #  with 452 more rows
…
## Warning in clean_pv(TSH$T3_PV, check = TRUE): NAs introduced by coercion

## # A tibble: 0 x 7
## #  with 7 variables: origin_x <chr>, T3_pv <dbl>, T3_bounded <lgl>,
## #   T3_OR <dbl>, T3_ORCI <chr>, T3_count <chr>, T3_countCI <chr>

pv  <- clean_pv(TSH$T3_PV)

## Warning in clean_pv(TSH$T3_PV): NAs introduced by coercion

pv  <- pv %>% select(-origin_x)
pv

## # A tibble: 462 x 6
##    T3_pv T3_bounded T3_OR T3_ORCI T3_count T3_countCI
##    <dbl> <lgl>      <dbl> <chr>   <chr>    <chr>     
##  1  0.4  FALSE         NA <NA>    <NA>     <NA>      
##  2  0.24 FALSE         NA <NA>    <NA>     <NA>      
##  3  0.09 FALSE         NA <NA>    <NA>     <NA>      
##  4  0.31 FALSE         NA <NA>    <NA>     <NA>      
##  5  0.54 FALSE         NA <NA>    <NA>     <NA>      
##  6  0.77 FALSE         NA <NA>    <NA>     <NA>      
##  7  0.43 FALSE         NA <NA>    <NA>     <NA>      
##  8  0.78 FALSE         NA <NA>    <NA>     <NA>      
##  9  0.73 FALSE         NA <NA>    <NA>     <NA>      
## 10  0.86 FALSE         NA <NA>    <NA>     <NA>      
## #  with 452 more rows
…
