CI plots
…
CI plots

Jono Tuke

2019-12-02

1 Read in clean data

# TSH_long  <- read_rds("../data/20190716-02_convert_long.rds")
# TSH_long  <- read_rds("../data/2019082-02_convert_long.rds")
TSH_long  <- read_rds("../data/20191202-02_convert_long.rds")
TSH_long

## # A tibble: 2,568 x 31
##    `hyper/hypo` Paper CvQ   Condition `NOS score` `TSH incong` `cross-section`
##    <chr>        <chr> <chr> <chr>           <dbl> <chr>        <chr>          
##  1 Hyper        Capp Cont AF                  9 0            N              
##  2 Hyper        Capp Cont AF                  9 0            N              
##  3 Hyper        Capp Cont AF                  9 0            N              
##  4 Hyper        Capp Cont AF                 NA <NA>         <NA>           
##  5 Hyper        Capp Cont AF                 NA <NA>         <NA>           
##  6 Hyper        Capp Cont AF                 NA <NA>         <NA>           
##  7 Hyper        Capp Cont CHD                NA <NA>         <NA>           
##  8 Hyper        Capp Cont CHD                NA <NA>         <NA>           
##  9 Hyper        Capp Cont CHD                NA <NA>         <NA>           
## 10 Hyper        Capp Cont CHD                NA <NA>         <NA>           
## #  with 2,558 more rows, and 24 more variables: `abstract score` <chr>,
## #   ID <int>, system <chr>, cohort <chr>, low_selected <lgl>,
## #   high_selected <lgl>, Thyroid_test <chr>, N <dbl>, method <chr>, Sig <chr>,
## #   Sophistication <chr>, cov <chr>, total <chr>, inferred <lgl>, pv <dbl>,
## #   bounded <lgl>, OR <dbl>, ORCI <chr>, count <chr>, countCI <chr>,
## #   Thyroid_test_4 <chr>, high_low <chr>, n_cov <chr>, N_bin <fct>

2 Visual comparison

2.1 Overall

TSH_long

## # A tibble: 2,568 x 31
##    `hyper/hypo` Paper CvQ   Condition `NOS score` `TSH incong` `cross-section`
##    <chr>        <chr> <chr> <chr>           <dbl> <chr>        <chr>          
##  1 Hyper        Capp Cont AF                  9 0            N              
##  2 Hyper        Capp Cont AF                  9 0            N              
##  3 Hyper        Capp Cont AF                  9 0            N              
##  4 Hyper        Capp Cont AF                 NA <NA>         <NA>           
##  5 Hyper        Capp Cont AF                 NA <NA>         <NA>           
##  6 Hyper        Capp Cont AF                 NA <NA>         <NA>           
##  7 Hyper        Capp Cont CHD                NA <NA>         <NA>           
##  8 Hyper        Capp Cont CHD                NA <NA>         <NA>           
##  9 Hyper        Capp Cont CHD                NA <NA>         <NA>           
## 10 Hyper        Capp Cont CHD                NA <NA>         <NA>           
## #  with 2,558 more rows, and 24 more variables: `abstract score` <chr>,
## #   ID <int>, system <chr>, cohort <chr>, low_selected <lgl>,
## #   high_selected <lgl>, Thyroid_test <chr>, N <dbl>, method <chr>, Sig <chr>,
## #   Sophistication <chr>, cov <chr>, total <chr>, inferred <lgl>, pv <dbl>,
## #   bounded <lgl>, OR <dbl>, ORCI <chr>, count <chr>, countCI <chr>,
## #   Thyroid_test_4 <chr>, high_low <chr>, n_cov <chr>, N_bin <fct>
…
2.8 Hyper / hypo

TSH_long

## # A tibble: 2,568 x 31
##    `hyper/hypo` Paper CvQ   Condition `NOS score` `TSH incong` `cross-section`
##    <chr>        <chr> <chr> <chr>           <dbl> <chr>        <chr>          
##  1 Hyper        Capp Cont AF                  9 0            N              
##  2 Hyper        Capp Cont AF                  9 0            N              
##  3 Hyper        Capp Cont AF                  9 0            N              
##  4 Hyper        Capp Cont AF                 NA <NA>         <NA>           
##  5 Hyper        Capp Cont AF                 NA <NA>         <NA>           
##  6 Hyper        Capp Cont AF                 NA <NA>         <NA>           
##  7 Hyper        Capp Cont CHD                NA <NA>         <NA>           
##  8 Hyper        Capp Cont CHD                NA <NA>         <NA>           
##  9 Hyper        Capp Cont CHD                NA <NA>         <NA>           
## 10 Hyper        Capp Cont CHD                NA <NA>         <NA>           
## #  with 2,558 more rows, and 24 more variables: `abstract score` <chr>,
## #   ID <int>, system <chr>, cohort <chr>, low_selected <lgl>,
## #   high_selected <lgl>, Thyroid_test <chr>, N <dbl>, method <chr>, Sig <chr>,
## #   Sophistication <chr>, cov <chr>, total <chr>, inferred <lgl>, pv <dbl>,
## #   bounded <lgl>, OR <dbl>, ORCI <chr>, count <chr>, countCI <chr>,
## #   Thyroid_test_4 <chr>, high_low <chr>, n_cov <chr>, N_bin <fct>
…
