Prelim analysis
…
Prelim analysis

Jono Tuke

2019-06-02

1 Read in clean data

TSH_long  <- read_rds("../data/2019061-02_convert_long.rds")
TSH_long

## # A tibble: 1,386 x 19
##    Paper CvQ   Condition    ID system cohort Thyroid_test     N method
##    <chr> <chr> <chr>     <int> <chr>  <chr>  <chr>        <dbl> <chr> 
##  1 Capp Cont AF            1 cardi C4     FT4           2673 Cox PH
##  2 Capp Cont AF            1 cardi C4     TSH           2673 Cox PH
##  3 Capp Cont AF            1 cardi C4     T3            2673 Cox PH
##  4 Capp Cont AF            2 cardi C4     FT4           2673 Cox PH
##  5 Capp Cont AF            2 cardi C4     TSH           2673 Cox PH
##  6 Capp Cont AF            2 cardi C4     T3            2673 Cox PH
##  7 Capp Cont CHD           3 cardi C3     FT4           2215 Cox PH
##  8 Capp Cont CHD           3 cardi C3     TSH           2215 Cox PH
##  9 Capp Cont CHD           3 cardi C3     T3            2215 Cox PH
## 10 Capp Cont CHD           4 cardi C3     FT4           2215 Cox PH
## #  with 1,376 more rows, and 10 more variables: Sig <chr>, cov <chr>,
## #   total <chr>, inferred <lgl>, pv <dbl>, bounded <lgl>, OR <dbl>,
## #   ORCI <chr>, count <chr>, countCI <chr>
…
TSH_long  <- 
  TSH_long %>% 
  mutate(N_bin = cut_number(N, 5))
TSH_long %>% filter(is.na(N_bin))

## # A tibble: 292 x 20
##    Paper CvQ   Condition    ID system cohort Thyroid_test     N method
##    <chr> <chr> <chr>     <int> <chr>  <chr>  <chr>        <dbl> <chr> 
##  1 Capp Quar AF           15 cardi C4     T3              NA <NA>  
##  2 Capp Quar CHD          16 cardi C3     T3              NA <NA>  
##  3 Capp Quar Heart fa    17 cardi C5     T3              NA <NA>  
##  4 Capp Quar mortality    18 morta C7     T3              NA <NA>  
##  5 Capp Quar Hip Frac    19 ortho C6     T3              NA <NA>  
##  6 Capp Quar Dementia     20 neuro C1     T3              NA <NA>  
##  7 Chak Cont AF preva    21 cardi C2     T3              NA <NA>  
##  8 Chak Cont AF preva    22 cardi C2     T3              NA <NA>  
##  9 Chak Cont AF preva    23 mixed  C1     T3              NA <NA>  
## 10 Chak Cont AF preva    24 mixed  C1     TSH             NA log r
## #  with 282 more rows, and 11 more variables: Sig <chr>, cov <chr>,
## #   total <chr>, inferred <lgl>, pv <dbl>, bounded <lgl>, OR <dbl>,
## #   ORCI <chr>, count <chr>, countCI <chr>, N_bin <fct>
…
