Modelling
…
Best model (BIC) is thyroid test + random intercept.

3 Model to take into account cohorts

3.1 Background

We have added a cohort based on sample size within paper

TSH_long %>% 
  dplyr::select(
  Paper, N, cohort
)

## # A tibble: 1,952 x 3
##    Paper             N cohort
##    <chr>         <dbl> <chr> 
##  1 Cappola et al  2673 C4    
##  2 Cappola et al  2673 C4    
##  3 Cappola et al  2673 C4    
##  4 Cappola et al  2673 C4    
##  5 Cappola et al  2673 C4    
##  6 Cappola et al  2673 C4    
##  7 Cappola et al  2215 C3    
##  8 Cappola et al  2215 C3    
##  9 Cappola et al  2215 C3    
## 10 Cappola et al  2215 C3    
## #  with 1,942 more rows
…
To little data to fit.

7 Apply Devils Advocate

7.1 Small size, small model

TSH_DA  <- TSH_long %>% filter(min_size_min_method)
TSH_DA

## # A tibble: 133 x 34
##    `hyper/hypo` Paper CvQ   Condition `NOS score` `TSH incong` `cross-section`
##    <chr>        <chr> <chr> <chr>           <dbl> <chr>        <chr>          
##  1 Hyper        Capp quar Dementia           NA <NA>         <NA>           
##  2 Hyper        Capp quar Dementia           NA <NA>         <NA>           
##  3 Hyper        Chak cont AF preva          NA <NA>         <NA>           
##  4 Hyper        Chak cont AF preva          NA <NA>         <NA>           
##  5 Hyper        Chak cont AF incid          NA <NA>         <NA>           
##  6 Hyper        Chak cont AF incid          NA <NA>         <NA>           
##  7 Hyper        Gamm cont prevalen          NA <NA>         <NA>           
##  8 Hyper        Gamm cont prevalen          NA <NA>         <NA>           
##  9 Hyper        Heer cont AF incid           8 0            N              
## 10 Hyper        Heer cont AF incid           8 0            N              
## #  with 123 more rows, and 27 more variables: `abstract score` <chr>,
## #   ID <int>, system <chr>, cohort <chr>, min_size_min_method <lgl>,
## #   min_size_max_method <lgl>, max_size_min_method <lgl>,
## #   max_size_max_method <lgl>, Thyroid_test <fct>, N <dbl>, method <chr>,
## #   Sig <fct>, Sophistication <chr>, cov <chr>, total <chr>, inferred <lgl>,
## #   pv <dbl>, bounded <lgl>, OR <dbl>, ORCI <chr>, count <chr>, countCI <chr>,
## #   Thyroid_test_4 <chr>, high_low <chr>, n_cov <chr>, N_bin <fct>, style <fct>
…
7.2 Small size, large model

TSH_DA  <- TSH_long %>% filter(min_size_max_method)
TSH_DA

## # A tibble: 133 x 34
##    `hyper/hypo` Paper CvQ   Condition `NOS score` `TSH incong` `cross-section`
##    <chr>        <chr> <chr> <chr>           <dbl> <chr>        <chr>          
##  1 Hyper        Capp cont Dementia           NA <NA>         <NA>           
##  2 Hyper        Capp cont Dementia           NA <NA>         <NA>           
##  3 Hyper        Capp cont Dementia           NA <NA>         <NA>           
##  4 Hyper        Chak cont AF preva          NA <NA>         <NA>           
##  5 Hyper        Chak cont AF preva          NA <NA>         <NA>           
##  6 Hyper        Chak cont AF incid          NA <NA>         <NA>           
##  7 Hyper        Chak cont AF incid          NA <NA>         <NA>           
##  8 Hyper        Gamm cont prevalen          NA <NA>         <NA>           
##  9 Hyper        Gamm cont prevalen          NA <NA>         <NA>           
## 10 Hyper        Heer cont AF incid          NA <NA>         <NA>           
## #  with 123 more rows, and 27 more variables: `abstract score` <chr>,
## #   ID <int>, system <chr>, cohort <chr>, min_size_min_method <lgl>,
## #   min_size_max_method <lgl>, max_size_min_method <lgl>,
## #   max_size_max_method <lgl>, Thyroid_test <fct>, N <dbl>, method <chr>,
## #   Sig <fct>, Sophistication <chr>, cov <chr>, total <chr>, inferred <lgl>,
## #   pv <dbl>, bounded <lgl>, OR <dbl>, ORCI <chr>, count <chr>, countCI <chr>,
## #   Thyroid_test_4 <chr>, high_low <chr>, n_cov <chr>, N_bin <fct>, style <fct>
…
7.3 Large size, small model

TSH_DA  <- TSH_long %>% filter(max_size_min_method)
TSH_DA

## # A tibble: 134 x 34
##    `hyper/hypo` Paper CvQ   Condition `NOS score` `TSH incong` `cross-section`
##    <chr>        <chr> <chr> <chr>           <dbl> <chr>        <chr>          
##  1 Hyper        Capp quar mortality          NA <NA>         <NA>           
##  2 Hyper        Capp quar mortality          NA <NA>         <NA>           
##  3 Hyper        Chak cont AF preva           9 0            Y              
##  4 Hyper        Chak cont AF preva           9 0            Y              
##  5 Hyper        Chak cont AF incid          NA <NA>         N              
##  6 Hyper        Chak cont AF incid          NA <NA>         N              
##  7 Hyper        Gamm cont AF preva           9 0            Y              
##  8 Hyper        Gamm cont AF preva           9 0            Y              
##  9 Hyper        Heer cont AF incid           8 0            N              
## 10 Hyper        Heer cont AF incid           8 0            N              
## #  with 124 more rows, and 27 more variables: `abstract score` <chr>,
## #   ID <int>, system <chr>, cohort <chr>, min_size_min_method <lgl>,
## #   min_size_max_method <lgl>, max_size_min_method <lgl>,
## #   max_size_max_method <lgl>, Thyroid_test <fct>, N <dbl>, method <chr>,
## #   Sig <fct>, Sophistication <chr>, cov <chr>, total <chr>, inferred <lgl>,
## #   pv <dbl>, bounded <lgl>, OR <dbl>, ORCI <chr>, count <chr>, countCI <chr>,
## #   Thyroid_test_4 <chr>, high_low <chr>, n_cov <chr>, N_bin <fct>, style <fct>
…
7.4 Large size, large model

TSH_DA  <- TSH_long %>% filter(max_size_max_method)
TSH_DA

## # A tibble: 135 x 34
##    `hyper/hypo` Paper CvQ   Condition `NOS score` `TSH incong` `cross-section`
##    <chr>        <chr> <chr> <chr>           <dbl> <chr>        <chr>          
##  1 Hyper        Capp cont Total Mo          NA <NA>         <NA>           
##  2 Hyper        Capp cont Total Mo          NA <NA>         <NA>           
##  3 Hyper        Capp cont Total Mo          NA <NA>         <NA>           
##  4 Hyper        Chak cont AF preva          NA <NA>         <NA>           
##  5 Hyper        Chak cont AF preva          NA <NA>         <NA>           
##  6 Hyper        Chak cont AF incid          NA <NA>         <NA>           
##  7 Hyper        Chak cont AF incid          NA <NA>         <NA>           
##  8 Hyper        Gamm cont AF preva          NA <NA>         <NA>           
##  9 Hyper        Gamm cont AF preva          NA <NA>         <NA>           
## 10 Hyper        Heer cont AF incid          NA <NA>         <NA>           
## #  with 125 more rows, and 27 more variables: `abstract score` <chr>,
## #   ID <int>, system <chr>, cohort <chr>, min_size_min_method <lgl>,
## #   min_size_max_method <lgl>, max_size_min_method <lgl>,
## #   max_size_max_method <lgl>, Thyroid_test <fct>, N <dbl>, method <chr>,
## #   Sig <fct>, Sophistication <chr>, cov <chr>, total <chr>, inferred <lgl>,
## #   pv <dbl>, bounded <lgl>, OR <dbl>, ORCI <chr>, count <chr>, countCI <chr>,
## #   Thyroid_test_4 <chr>, high_low <chr>, n_cov <chr>, N_bin <fct>, style <fct>
…
